{
	"nombre": "Mapa test",
	"dificultad":"media",
	"backgroundColor":{
		"R":20,
		"G":200,
		"B":255
	},
	"powerUpSpawnPoints":
	[
	{
		"x":10,
		"y":5
	},
	{
		"x":5,
		"y":10
	}
	],
	"rocas": [{
		"x": 7,
		"y": 8
	}, {
		"x": 9,
		"y": 15
	}],
	"paredes":[
	{
		"x":1,
		"y":1
	},
	{
		"x":2,
		"y":2
	}
	]
}
