-- Merging decision tree log ---
manifest
ADDED from /home/matias/AndroidStudioProjects/BouncingBullets/android/AndroidManifest.xml:2:1-33:12
INJECTED from /home/matias/AndroidStudioProjects/BouncingBullets/android/AndroidManifest.xml:2:1-33:12
INJECTED from /home/matias/AndroidStudioProjects/BouncingBullets/android/AndroidManifest.xml:2:1-33:12
INJECTED from /home/matias/AndroidStudioProjects/BouncingBullets/android/AndroidManifest.xml:2:1-33:12
INJECTED from /home/matias/AndroidStudioProjects/BouncingBullets/android/AndroidManifest.xml:2:1-33:12
INJECTED from /home/matias/AndroidStudioProjects/BouncingBullets/android/AndroidManifest.xml:2:1-33:12
INJECTED from /home/matias/AndroidStudioProjects/BouncingBullets/android/AndroidManifest.xml:2:1-33:12
	package
		ADDED from /home/matias/AndroidStudioProjects/BouncingBullets/android/AndroidManifest.xml:3:5-41
		INJECTED from /home/matias/AndroidStudioProjects/BouncingBullets/android/AndroidManifest.xml
		INJECTED from /home/matias/AndroidStudioProjects/BouncingBullets/android/AndroidManifest.xml
	android:versionName
		INJECTED from /home/matias/AndroidStudioProjects/BouncingBullets/android/AndroidManifest.xml
		ADDED from /home/matias/AndroidStudioProjects/BouncingBullets/android/AndroidManifest.xml:2:1-33:12
		INJECTED from /home/matias/AndroidStudioProjects/BouncingBullets/android/AndroidManifest.xml
	android:versionCode
		INJECTED from /home/matias/AndroidStudioProjects/BouncingBullets/android/AndroidManifest.xml
		ADDED from /home/matias/AndroidStudioProjects/BouncingBullets/android/AndroidManifest.xml:2:1-33:12
		INJECTED from /home/matias/AndroidStudioProjects/BouncingBullets/android/AndroidManifest.xml
	xmlns:android
		ADDED from /home/matias/AndroidStudioProjects/BouncingBullets/android/AndroidManifest.xml:2:11-69
uses-permission#android.permission.CAMERA
ADDED from /home/matias/AndroidStudioProjects/BouncingBullets/android/AndroidManifest.xml:5:5-64
	android:name
		ADDED from /home/matias/AndroidStudioProjects/BouncingBullets/android/AndroidManifest.xml:5:22-62
uses-permission#android.permission.VIBRATE
ADDED from /home/matias/AndroidStudioProjects/BouncingBullets/android/AndroidManifest.xml:6:5-65
	android:name
		ADDED from /home/matias/AndroidStudioProjects/BouncingBullets/android/AndroidManifest.xml:6:22-63
uses-permission#android.permission.WAKE_LOCK
ADDED from /home/matias/AndroidStudioProjects/BouncingBullets/android/AndroidManifest.xml:7:5-67
	android:name
		ADDED from /home/matias/AndroidStudioProjects/BouncingBullets/android/AndroidManifest.xml:7:22-65
uses-feature#android.hardware.camera
ADDED from /home/matias/AndroidStudioProjects/BouncingBullets/android/AndroidManifest.xml:8:5-85
	android:required
		ADDED from /home/matias/AndroidStudioProjects/BouncingBullets/android/AndroidManifest.xml:8:58-82
	android:name
		ADDED from /home/matias/AndroidStudioProjects/BouncingBullets/android/AndroidManifest.xml:8:19-57
application
ADDED from /home/matias/AndroidStudioProjects/BouncingBullets/android/AndroidManifest.xml:10:5-31:19
	android:label
		ADDED from /home/matias/AndroidStudioProjects/BouncingBullets/android/AndroidManifest.xml:15:9-41
	android:appCategory
		ADDED from /home/matias/AndroidStudioProjects/BouncingBullets/android/AndroidManifest.xml:14:9-35
	android:icon
		ADDED from /home/matias/AndroidStudioProjects/BouncingBullets/android/AndroidManifest.xml:12:9-39
	android:allowBackup
		ADDED from /home/matias/AndroidStudioProjects/BouncingBullets/android/AndroidManifest.xml:11:9-35
	android:theme
		ADDED from /home/matias/AndroidStudioProjects/BouncingBullets/android/AndroidManifest.xml:16:9-40
	android:isGame
		ADDED from /home/matias/AndroidStudioProjects/BouncingBullets/android/AndroidManifest.xml:13:9-30
activity#com.matias.bouncingbullets.AndroidLauncher
ADDED from /home/matias/AndroidStudioProjects/BouncingBullets/android/AndroidManifest.xml:17:9-26:20
	android:screenOrientation
		ADDED from /home/matias/AndroidStudioProjects/BouncingBullets/android/AndroidManifest.xml:20:13-50
	android:label
		ADDED from /home/matias/AndroidStudioProjects/BouncingBullets/android/AndroidManifest.xml:19:13-45
	android:configChanges
		ADDED from /home/matias/AndroidStudioProjects/BouncingBullets/android/AndroidManifest.xml:21:13-107
	android:name
		ADDED from /home/matias/AndroidStudioProjects/BouncingBullets/android/AndroidManifest.xml:18:13-70
intent-filter#action:name:android.intent.action.MAIN+category:name:android.intent.category.LAUNCHER
ADDED from /home/matias/AndroidStudioProjects/BouncingBullets/android/AndroidManifest.xml:22:13-25:29
action#android.intent.action.MAIN
ADDED from /home/matias/AndroidStudioProjects/BouncingBullets/android/AndroidManifest.xml:23:17-69
	android:name
		ADDED from /home/matias/AndroidStudioProjects/BouncingBullets/android/AndroidManifest.xml:23:25-66
category#android.intent.category.LAUNCHER
ADDED from /home/matias/AndroidStudioProjects/BouncingBullets/android/AndroidManifest.xml:24:17-77
	android:name
		ADDED from /home/matias/AndroidStudioProjects/BouncingBullets/android/AndroidManifest.xml:24:27-74
activity#com.matias.bouncingbullets.CamaraAndroid
ADDED from /home/matias/AndroidStudioProjects/BouncingBullets/android/AndroidManifest.xml:28:9-76
	android:name
		ADDED from /home/matias/AndroidStudioProjects/BouncingBullets/android/AndroidManifest.xml:28:19-74
uses-sdk
INJECTED from /home/matias/AndroidStudioProjects/BouncingBullets/android/AndroidManifest.xml reason: use-sdk injection requested
INJECTED from /home/matias/AndroidStudioProjects/BouncingBullets/android/AndroidManifest.xml
INJECTED from /home/matias/AndroidStudioProjects/BouncingBullets/android/AndroidManifest.xml
INJECTED from /home/matias/AndroidStudioProjects/BouncingBullets/android/AndroidManifest.xml
INJECTED from /home/matias/AndroidStudioProjects/BouncingBullets/android/AndroidManifest.xml
	android:targetSdkVersion
		INJECTED from /home/matias/AndroidStudioProjects/BouncingBullets/android/AndroidManifest.xml
		ADDED from /home/matias/AndroidStudioProjects/BouncingBullets/android/AndroidManifest.xml
		INJECTED from /home/matias/AndroidStudioProjects/BouncingBullets/android/AndroidManifest.xml
	android:minSdkVersion
		INJECTED from /home/matias/AndroidStudioProjects/BouncingBullets/android/AndroidManifest.xml
		ADDED from /home/matias/AndroidStudioProjects/BouncingBullets/android/AndroidManifest.xml
		INJECTED from /home/matias/AndroidStudioProjects/BouncingBullets/android/AndroidManifest.xml
